…
Population

A common argument against D.C. Statehood is its size. Claiming that it’s just a medium-sized city opponents of D.C. Statehood often argue that it’s really just a subcomponent of what every other state has: one large city; and is thus missing the other components that other states have (i.e. more suburban/rural areas outside of its large cities).

Let’s take a look at D.C.’s population compared to other states.

## # A tibble: 52 x 8
##     rank state x2021_population growth_2021 x2010_census growth_since_20…
##    <int> <chr>            <int> <chr>              <int> <chr>           
##  1     1 Cali…         39613493 0.13%           37319502 6.15%           
##  2     2 Texas         29730311 1.25%           25241971 17.78%          
##  3     3 Flor…         21944577 1.08%           18845537 16.44%          
##  4     4 New …         19299981 -0.40%          19399878 -0.51%          
##  5     5 Penn…         12804123 0.01%           12711160 0.73%           
##  6     6 Illi…         12569321 -0.41%          12840503 -2.11%          
##  7     7 Ohio          11714618 0.11%           11539336 1.52%           
##  8     8 Geor…         10830007 0.99%            9711881 11.51%          
##  9     9 Nort…         10701022 1.00%            9574323 11.77%          
## 10    10 Mich…          9992427 0.03%            9877510 1.16%           
## # … with 42 more rows, and 2 more variables: percent_of_us <chr>,
## #   density_mi2 <chr>
…
